%!PS-Adobe-2.0 EPSF-2.0
%%BoundingBox:  0 0 567 276
%%Title: /home/jair/Escritorio/Histo4.eps: Canvas_1
%%Creator: ROOT Version 6.20/04
%%CreationDate: Mon Aug 10 12:15:35 2020
%%DocumentNeededResources: ProcSet (FontSetInit)
%%EndComments
%%BeginProlog
80 dict begin
/s {stroke} def /l {lineto} def /m {moveto} def /t {translate} def
/r {rotate} def /rl {roll}  def /R {repeat} def
/d {rlineto} def /rm {rmoveto} def /gr {grestore} def /f {eofill} def
/c {setrgbcolor} def /black {0 setgray} def /sd {setdash} def
/cl {closepath} def /sf {scalefont setfont} def /lw {setlinewidth} def
/box {m dup 0 exch d exch 0 d 0 exch neg d cl} def
/NC{systemdict begin initclip end}def/C{NC box clip newpath}def
/bl {box s} def /bf {gsave box gsave f grestore 1 lw [] 0 sd s grestore} def /Y { 0 exch d} def /X { 0 d} def 
/K {{pop pop 0 moveto} exch kshow} bind def
/ita {/ang 15 def gsave [1 0 ang dup sin exch cos div 1 0 0] concat} def 
/mp {newpath /y exch def /x exch def} def
/side {[w .77 mul w .23 mul] .385 w mul sd w 0 l currentpoint t -144 r} def
/mr {mp x y w2 0 360 arc} def /m24 {mr s} def /m20 {mr f} def
/mb {mp x y w2 add m w2 neg 0 d 0 w neg d w 0 d 0 w d cl} def
/mt {mp x y w2 add m w2 neg w neg d w 0 d cl} def
/w4 {w 4 div} def
/w6 {w 6 div} def
/w8 {w 8 div} def
/m21 {mb f} def /m25 {mb s} def /m22 {mt f} def /m26{mt s} def
/m23 {mp x y w2 sub m w2 w d w neg 0 d cl f} def
/m27 {mp x y w2 add m w3 neg w2 neg d w3 w2 neg d w3 w2 d cl s} def
/m28 {mp x w2 sub y w2 sub w3 add m w3 0 d  0 w3 neg d w3 0 d 0 w3 d w3 0 d  0 w3 d w3 neg 0 d 0 w3 d w3 neg 0 d 0 w3 neg d w3 neg 0 d cl s } def
/m29 {mp gsave x w2 sub y w2 add w3 sub m currentpoint t 4 {side} repeat cl fill gr} def
/m30 {mp gsave x w2 sub y w2 add w3 sub m currentpoint t 4 {side} repeat cl s gr} def
/m31 {mp x y w2 sub m 0 w d x w2 sub y m w 0 d x w2 sub y w2 add m w w neg d x w2 sub y w2 sub m w w d s} def
/m32 {mp x y w2 sub m w2 w d w neg 0 d cl s} def
/m33 {mp x y w2 add m w3 neg w2 neg d w3 w2 neg d w3 w2 d cl f} def
/m34 {mp x w2 sub y w2 sub w3 add m w3 0 d  0 w3 neg d w3 0 d 0 w3 d w3 0 d  0 w3 d w3 neg 0 d 0 w3 d w3 neg 0 d 0 w3 neg d w3 neg 0 d cl f } def
/m35 {mp x y w2 add m w2 neg w2 neg d w2 w2 neg d w2 w2 d w2 neg w2 d x y w2 sub m 0 w d x w2 sub y m w 0 d s} def
/m36 {mb x w2 sub y w2 add m w w neg d x w2 sub y w2 sub m w w d s} def
/m37 {mp x y m w4 neg w2 d w4 neg w2 neg d w2 0 d  w4 neg w2 neg d w2 0 d w4 neg w2 d w2 0 d w4 neg w2 d w4 neg w2 neg d cl s} def
/m38 {mp x w4 sub y w2 add m w4 neg w4 neg d 0 w2 neg d w4 w4 neg d w2 0 d w4 w4 d 0 w2 d w4 neg w4 d w2 neg 0 d x y w2 sub m 0 w d x w2 sub y m w 0 d cl s} def
/m39 {mp x y m w4 neg w2 d w4 neg w2 neg d w2 0 d  w4 neg w2 neg d w2 0 d w4 neg w2 d w2 0 d w4 neg w2 d w4 neg w2 neg d cl f} def
/m40 {mp x y m w4 w2 d w4 w4 neg d w2 neg w4 neg d w2 w4 neg d w4 neg w4 neg d w4 neg w2 d w4 neg w2 neg d w4 neg w4 d w2 w4 d w2 neg w4 d w4 w4 d w4 w2 neg d cl s} def
/m41 {mp x y m w4 w2 d w4 w4 neg d w2 neg w4 neg d w2 w4 neg d w4 neg w4 neg d w4 neg w2 d w4 neg w2 neg d w4 neg w4 d w2 w4 d w2 neg w4 d w4 w4 d w4 w2 neg d cl f} def
/m42 {mp x y w2 add m w8 neg w2 -3 4 div mul d w2 -3 4 div mul w8 neg d w2 3 4 div mul w8 neg d w8 w2 -3 4 div mul d w8 w2 3 4 div mul d w2 3 4 div mul w8 d w2 -3 4 div mul w8 d w8 neg w2 3 4 div mul d cl s} def
/m43 {mp x y w2 add m w8 neg w2 -3 4 div mul d w2 -3 4 div mul w8 neg d w2 3 4 div mul w8 neg d w8 w2 -3 4 div mul d w8 w2 3 4 div mul d w2 3 4 div mul w8 d w2 -3 4 div mul w8 d w8 neg w2 3 4 div mul d cl f} def
/m44 {mp x y m w6 neg w2 d w2 2 3 div mul 0 d w6 neg w2 neg d w2 w6 d 0 w2 -2 3 div mul d w2 neg w6 d w6 w2 neg d w2 -2 3 div mul 0 d w6 w2 d w2 neg w6 neg d 0 w2 2 3 div mul d w2 w6 neg d cl s} def
/m45 {mp x y m w6 neg w2 d w2 2 3 div mul 0 d w6 neg w2 neg d w2 w6 d 0 w2 -2 3 div mul d w2 neg w6 d w6 w2 neg d w2 -2 3 div mul 0 d w6 w2 d w2 neg w6 neg d 0 w2 2 3 div mul d w2 w6 neg d cl f} def
/m46 {mp x y w4 add m w4 neg w4 d w4 neg w4 neg d  w4 w4 neg d w4 neg w4 neg d w4 w4 neg d w4 w4 d w4 w4 neg d w4 w4 d w4 neg w4 d w4 w4 d w4 neg w4 d w4 neg w4 neg d cl s} def
/m47 {mp x y w4 add m w4 neg w4 d w4 neg w4 neg d w4 w4 neg d w4 neg w4 neg d  w4 w4 neg d w4 w4 d w4 w4 neg d w4 w4 d w4 neg w4 d w4 w4 d w4 neg w4 d w4 neg w4 neg d cl f} def
/m48 {mp x y w4 add m w4 neg w4 d w4 neg w4 neg d w4 w4 neg d  w4 neg w4 neg d w4 w4 neg d w4 w4 d w4 w4 neg d w4 w4 d w4 neg w4 d w4 w4 d w4 neg w4 d w4 neg w4 neg d  w4 w4 neg d w4 neg w4 neg d w4 neg w4 d w4 w4 d cl f} def
/m49 {mp x w2 sub w3 add y w2 sub w3 add m  0 w3 neg d w3 0 d 0 w3 d w3 0 d 0 w3 d w3 neg 0 d 0 w3 d w3 neg 0 d 0 w3 neg d w3 neg 0 d 0 w3 neg d w3 0 d 0 w3 d w3 0 d 0 w3 neg d w3 neg 0 d cl f } def
/m2 {mp x y w2 sub m 0 w d x w2 sub y m w 0 d s} def
/m5 {mp x w2 sub y w2 sub m w w d x w2 sub y w2 add m w w neg d s} def
%%IncludeResource: ProcSet (FontSetInit)
%%IncludeResource: font Times-Roman
%%IncludeResource: font Times-Italic
%%IncludeResource: font Times-Bold
%%IncludeResource: font Times-BoldItalic
%%IncludeResource: font Helvetica
%%IncludeResource: font Helvetica-Oblique
%%IncludeResource: font Helvetica-Bold
%%IncludeResource: font Helvetica-BoldOblique
%%IncludeResource: font Courier
%%IncludeResource: font Courier-Oblique
%%IncludeResource: font Courier-Bold
%%IncludeResource: font Courier-BoldOblique
%%IncludeResource: font Symbol
%%IncludeResource: font ZapfDingbats
/reEncode {exch findfont dup length dict begin {1 index /FID eq  {pop pop} {def} ifelse } forall /Encoding exch def currentdict end dup /FontName get exch definefont pop } def [/Times-Bold /Times-Italic /Times-BoldItalic /Helvetica /Helvetica-Oblique
 /Helvetica-Bold /Helvetica-BoldOblique /Courier /Courier-Oblique /Courier-Bold /Courier-BoldOblique /Times-Roman /AvantGarde-Book /AvantGarde-BookOblique /AvantGarde-Demi /AvantGarde-DemiOblique /Bookman-Demi /Bookman-DemiItalic /Bookman-Light
 /Bookman-LightItalic /Helvetica-Narrow /Helvetica-Narrow-Bold /Helvetica-Narrow-BoldOblique /Helvetica-Narrow-Oblique /NewCenturySchlbk-Roman /NewCenturySchlbk-Bold /NewCenturySchlbk-BoldItalic /NewCenturySchlbk-Italic /Palatino-Bold
 /Palatino-BoldItalic /Palatino-Italic /Palatino-Roman ] {ISOLatin1Encoding reEncode } forall
%%EndProlog
%%BeginSetup
%%EndSetup
newpath  gsave  .25 .25 scale  gsave  0 0 t black[  ] 0 sd 3 lw 1 1 1 c 2268 1103 0 0 bf black 1 1 1 c 1896 883 226 111 bf black 1896 883 226 111 bl 1 1 1 c 1896 883 226 111 bf black 1896 883 226 111 bl 0 0 1 c 1 1 1 c black 0 0 1 c 1183 944 m 4 Y s
 1183 948 m 4 Y s 1174 948 m 9 X s 1183 948 m 10 X s black /w 2 def /w2 {w 2 div} def /w3 {w 3 div} def 1183 948 m20 1 1 1 c 453 176 1769 855 bf black 1769 855 m 453 X s 2222 855 m 176 Y s 2222 1031 m -453 X s 1769 1031 m -176 Y s 1 1 1 c black
 gsave  2268 1103 0 0 C 1956.99 993.927 t 0 r /Helvetica findfont 37.0407 sf 0 0 m (h1.4) show NC gr  1769 987 m 453 X s
 gsave  2268 1103 0 0 C 1790.3 950.712 t 0 r /Helvetica findfont 37.0407 sf 0 0 m (Entries ) show NC gr 
 gsave  2268 1103 0 0 C 2084.57 950.712 t 0 r /Helvetica findfont 37.0407 sf 0 0 m ( 43990) show NC gr 
 gsave  2268 1103 0 0 C 1790.3 907.498 t 0 r /Helvetica findfont 37.0407 sf 0 0 m (Mean  ) show NC gr 
 gsave  2268 1103 0 0 C 2156.59 907.498 t 0 r /Helvetica findfont 37.0407 sf 0 0 m (28) show NC gr 
 gsave  2268 1103 0 0 C 2136.02 907.498 t 0 r /Symbol findfont 37.0407 sf 0 0 m (-) show NC gr 
 gsave  2268 1103 0 0 C 2012.55 907.498 t 0 r /Helvetica findfont 37.0407 sf 0 0 m ( 1.324e) show NC gr 
 gsave  2268 1103 0 0 C 1790.3 864.284 t 0 r /Helvetica findfont 37.0407 sf 0 0 m (Std Dev   ) show NC gr 
 gsave  2268 1103 0 0 C 2156.59 864.284 t 0 r /Helvetica findfont 37.0407 sf 0 0 m (29) show NC gr 
 gsave  2268 1103 0 0 C 2136.02 864.284 t 0 r /Symbol findfont 37.0407 sf 0 0 m (-) show NC gr 
 gsave  2268 1103 0 0 C 2012.55 864.284 t 0 r /Helvetica findfont 37.0407 sf 0 0 m ( 1.066e) show NC gr  226 111 m 1896 X s 226 139 m -28 Y s 274 125 m -14 Y s 321 125 m -14 Y s 369 125 m -14 Y s 416 125 m -14 Y s 463 139 m -28 Y s 511 125 m -14 Y s
 558 125 m -14 Y s 605 125 m -14 Y s 653 125 m -14 Y s 700 139 m -28 Y s 748 125 m -14 Y s 795 125 m -14 Y s 842 125 m -14 Y s 890 125 m -14 Y s 937 139 m -28 Y s 984 125 m -14 Y s 1032 125 m -14 Y s 1079 125 m -14 Y s 1127 125 m -14 Y s 1174 139 m
 -28 Y s 1221 125 m -14 Y s 1269 125 m -14 Y s 1316 125 m -14 Y s 1364 125 m -14 Y s 1411 139 m -28 Y s 1458 125 m -14 Y s 1506 125 m -14 Y s 1553 125 m -14 Y s 1600 125 m -14 Y s 1648 139 m -28 Y s 1695 125 m -14 Y s 1743 125 m -14 Y s 1790 125 m
 -14 Y s 1837 125 m -14 Y s 1885 139 m -28 Y s 1932 125 m -14 Y s 1979 125 m -14 Y s 2027 125 m -14 Y s 2074 125 m -14 Y s 2122 139 m -28 Y s
 gsave  2268 1103 0 0 C 224.302 72.0237 t 0 r /Helvetica-Bold findfont 41.1564 sf 0 0 m (2) show NC gr 
 gsave  2268 1103 0 0 C 203.724 72.0237 t 0 r /Symbol findfont 41.1564 sf 0 0 m (-) show NC gr 
 gsave  2268 1103 0 0 C 444.489 72.0237 t 0 r /Helvetica-Bold findfont 41.1564 sf 0 0 m (1.5) show NC gr 
 gsave  2268 1103 0 0 C 421.853 72.0237 t 0 r /Symbol findfont 41.1564 sf 0 0 m (-) show NC gr 
 gsave  2268 1103 0 0 C 701.716 72.0237 t 0 r /Helvetica-Bold findfont 41.1564 sf 0 0 m (1) show NC gr 
 gsave  2268 1103 0 0 C 679.08 72.0237 t 0 r /Symbol findfont 41.1564 sf 0 0 m (-) show NC gr 
 gsave  2268 1103 0 0 C 917.787 72.0237 t 0 r /Helvetica-Bold findfont 41.1564 sf 0 0 m (0.5) show NC gr 
 gsave  2268 1103 0 0 C 895.151 72.0237 t 0 r /Symbol findfont 41.1564 sf 0 0 m (-) show NC gr 
 gsave  2268 1103 0 0 C 1160.61 72.0237 t 0 r /Helvetica-Bold findfont 41.1564 sf 0 0 m (0) show NC gr 
 gsave  2268 1103 0 0 C 1380.8 72.0237 t 0 r /Helvetica-Bold findfont 41.1564 sf 0 0 m (0.5) show NC gr 
 gsave  2268 1103 0 0 C 1638.02 72.0237 t 0 r /Helvetica-Bold findfont 41.1564 sf 0 0 m (1) show NC gr 
 gsave  2268 1103 0 0 C 1854.09 72.0237 t 0 r /Helvetica-Bold findfont 41.1564 sf 0 0 m (1.5) show NC gr 
 gsave  2268 1103 0 0 C 2109.26 72.0237 t 0 r /Helvetica-Bold findfont 41.1564 sf 0 0 m (2) show NC gr  226 111 m 883 Y s 281 111 m -55 X s 254 130 m -28 X s 254 149 m -28 X s 254 168 m -28 X s 254 187 m -28 X s 281 206 m -55 X s 254 225 m -28 X s
 254 244 m -28 X s 254 263 m -28 X s 254 282 m -28 X s 281 301 m -55 X s 254 320 m -28 X s 254 339 m -28 X s 254 358 m -28 X s 254 377 m -28 X s 281 396 m -55 X s 254 415 m -28 X s 254 434 m -28 X s 254 454 m -28 X s 254 473 m -28 X s 281 492 m -55 X
 s 254 511 m -28 X s 254 530 m -28 X s 254 549 m -28 X s 254 568 m -28 X s 281 587 m -55 X s 254 606 m -28 X s 254 625 m -28 X s 254 644 m -28 X s 254 663 m -28 X s 281 682 m -55 X s 254 701 m -28 X s 254 720 m -28 X s 254 739 m -28 X s 254 758 m -28
 X s 281 777 m -55 X s 254 796 m -28 X s 254 815 m -28 X s 254 834 m -28 X s 254 853 m -28 X s 281 872 m -55 X s 254 891 m -28 X s 254 910 m -28 X s 254 929 m -28 X s 254 948 m -28 X s 281 967 m -55 X s 281 967 m -55 X s 254 986 m -28 X s
 gsave  2268 1103 0 0 C 191.377 94.6597 t 0 r /Helvetica-Bold findfont 41.1564 sf 0 0 m (0) show NC gr 
 gsave  2268 1103 0 0 C 123.469 191.377 t 0 r /Helvetica-Bold findfont 41.1564 sf 0 0 m (5000) show NC gr 
 gsave  2268 1103 0 0 C 100.833 286.037 t 0 r /Helvetica-Bold findfont 41.1564 sf 0 0 m (10000) show NC gr 
 gsave  2268 1103 0 0 C 100.833 380.697 t 0 r /Helvetica-Bold findfont 41.1564 sf 0 0 m (15000) show NC gr 
 gsave  2268 1103 0 0 C 100.833 475.356 t 0 r /Helvetica-Bold findfont 41.1564 sf 0 0 m (20000) show NC gr 
 gsave  2268 1103 0 0 C 100.833 572.074 t 0 r /Helvetica-Bold findfont 41.1564 sf 0 0 m (25000) show NC gr 
 gsave  2268 1103 0 0 C 100.833 666.733 t 0 r /Helvetica-Bold findfont 41.1564 sf 0 0 m (30000) show NC gr 
 gsave  2268 1103 0 0 C 100.833 761.393 t 0 r /Helvetica-Bold findfont 41.1564 sf 0 0 m (35000) show NC gr 
 gsave  2268 1103 0 0 C 100.833 856.053 t 0 r /Helvetica-Bold findfont 41.1564 sf 0 0 m (40000) show NC gr 
 gsave  2268 1103 0 0 C 100.833 950.712 t 0 r /Helvetica-Bold findfont 41.1564 sf 0 0 m (45000) show NC gr  1 1 1 c 453 176 1769 855 bf black 1769 855 m 453 X s 2222 855 m 176 Y s 2222 1031 m -453 X s 1769 1031 m -176 Y s 1 1 1 c black
 gsave  2268 1103 0 0 C 1956.99 993.927 t 0 r /Helvetica findfont 37.0407 sf 0 0 m (h1.4) show NC gr  1769 987 m 453 X s
 gsave  2268 1103 0 0 C 1790.3 950.712 t 0 r /Helvetica findfont 37.0407 sf 0 0 m (Entries ) show NC gr 
 gsave  2268 1103 0 0 C 2084.57 950.712 t 0 r /Helvetica findfont 37.0407 sf 0 0 m ( 43990) show NC gr 
 gsave  2268 1103 0 0 C 1790.3 907.498 t 0 r /Helvetica findfont 37.0407 sf 0 0 m (Mean  ) show NC gr 
 gsave  2268 1103 0 0 C 2156.59 907.498 t 0 r /Helvetica findfont 37.0407 sf 0 0 m (28) show NC gr 
 gsave  2268 1103 0 0 C 2136.02 907.498 t 0 r /Symbol findfont 37.0407 sf 0 0 m (-) show NC gr 
 gsave  2268 1103 0 0 C 2012.55 907.498 t 0 r /Helvetica findfont 37.0407 sf 0 0 m ( 1.324e) show NC gr 
 gsave  2268 1103 0 0 C 1790.3 864.284 t 0 r /Helvetica findfont 37.0407 sf 0 0 m (Std Dev   ) show NC gr 
 gsave  2268 1103 0 0 C 2156.59 864.284 t 0 r /Helvetica findfont 37.0407 sf 0 0 m (29) show NC gr 
 gsave  2268 1103 0 0 C 2136.02 864.284 t 0 r /Symbol findfont 37.0407 sf 0 0 m (-) show NC gr 
 gsave  2268 1103 0 0 C 2012.55 864.284 t 0 r /Helvetica findfont 37.0407 sf 0 0 m ( 1.066e) show NC gr  1 1 1 c black
 gsave  2268 1103 0 0 C 989.811 1047.43 t 0 r /Helvetica findfont 55.5611 sf 0 0 m (Dosis Depo) show NC gr 
 gr  gr showpage
end
%%EOF
