%!PS-Adobe-2.0 EPSF-2.0
%%BoundingBox:  0 0 567 276
%%Title: /home/jair/Escritorio/Histo1.eps: Canvas_1
%%Creator: ROOT Version 6.20/04
%%CreationDate: Mon Aug 10 12:12:48 2020
%%DocumentNeededResources: ProcSet (FontSetInit)
%%EndComments
%%BeginProlog
80 dict begin
/s {stroke} def /l {lineto} def /m {moveto} def /t {translate} def
/r {rotate} def /rl {roll}  def /R {repeat} def
/d {rlineto} def /rm {rmoveto} def /gr {grestore} def /f {eofill} def
/c {setrgbcolor} def /black {0 setgray} def /sd {setdash} def
/cl {closepath} def /sf {scalefont setfont} def /lw {setlinewidth} def
/box {m dup 0 exch d exch 0 d 0 exch neg d cl} def
/NC{systemdict begin initclip end}def/C{NC box clip newpath}def
/bl {box s} def /bf {gsave box gsave f grestore 1 lw [] 0 sd s grestore} def /Y { 0 exch d} def /X { 0 d} def 
/K {{pop pop 0 moveto} exch kshow} bind def
/ita {/ang 15 def gsave [1 0 ang dup sin exch cos div 1 0 0] concat} def 
/mp {newpath /y exch def /x exch def} def
/side {[w .77 mul w .23 mul] .385 w mul sd w 0 l currentpoint t -144 r} def
/mr {mp x y w2 0 360 arc} def /m24 {mr s} def /m20 {mr f} def
/mb {mp x y w2 add m w2 neg 0 d 0 w neg d w 0 d 0 w d cl} def
/mt {mp x y w2 add m w2 neg w neg d w 0 d cl} def
/w4 {w 4 div} def
/w6 {w 6 div} def
/w8 {w 8 div} def
/m21 {mb f} def /m25 {mb s} def /m22 {mt f} def /m26{mt s} def
/m23 {mp x y w2 sub m w2 w d w neg 0 d cl f} def
/m27 {mp x y w2 add m w3 neg w2 neg d w3 w2 neg d w3 w2 d cl s} def
/m28 {mp x w2 sub y w2 sub w3 add m w3 0 d  0 w3 neg d w3 0 d 0 w3 d w3 0 d  0 w3 d w3 neg 0 d 0 w3 d w3 neg 0 d 0 w3 neg d w3 neg 0 d cl s } def
/m29 {mp gsave x w2 sub y w2 add w3 sub m currentpoint t 4 {side} repeat cl fill gr} def
/m30 {mp gsave x w2 sub y w2 add w3 sub m currentpoint t 4 {side} repeat cl s gr} def
/m31 {mp x y w2 sub m 0 w d x w2 sub y m w 0 d x w2 sub y w2 add m w w neg d x w2 sub y w2 sub m w w d s} def
/m32 {mp x y w2 sub m w2 w d w neg 0 d cl s} def
/m33 {mp x y w2 add m w3 neg w2 neg d w3 w2 neg d w3 w2 d cl f} def
/m34 {mp x w2 sub y w2 sub w3 add m w3 0 d  0 w3 neg d w3 0 d 0 w3 d w3 0 d  0 w3 d w3 neg 0 d 0 w3 d w3 neg 0 d 0 w3 neg d w3 neg 0 d cl f } def
/m35 {mp x y w2 add m w2 neg w2 neg d w2 w2 neg d w2 w2 d w2 neg w2 d x y w2 sub m 0 w d x w2 sub y m w 0 d s} def
/m36 {mb x w2 sub y w2 add m w w neg d x w2 sub y w2 sub m w w d s} def
/m37 {mp x y m w4 neg w2 d w4 neg w2 neg d w2 0 d  w4 neg w2 neg d w2 0 d w4 neg w2 d w2 0 d w4 neg w2 d w4 neg w2 neg d cl s} def
/m38 {mp x w4 sub y w2 add m w4 neg w4 neg d 0 w2 neg d w4 w4 neg d w2 0 d w4 w4 d 0 w2 d w4 neg w4 d w2 neg 0 d x y w2 sub m 0 w d x w2 sub y m w 0 d cl s} def
/m39 {mp x y m w4 neg w2 d w4 neg w2 neg d w2 0 d  w4 neg w2 neg d w2 0 d w4 neg w2 d w2 0 d w4 neg w2 d w4 neg w2 neg d cl f} def
/m40 {mp x y m w4 w2 d w4 w4 neg d w2 neg w4 neg d w2 w4 neg d w4 neg w4 neg d w4 neg w2 d w4 neg w2 neg d w4 neg w4 d w2 w4 d w2 neg w4 d w4 w4 d w4 w2 neg d cl s} def
/m41 {mp x y m w4 w2 d w4 w4 neg d w2 neg w4 neg d w2 w4 neg d w4 neg w4 neg d w4 neg w2 d w4 neg w2 neg d w4 neg w4 d w2 w4 d w2 neg w4 d w4 w4 d w4 w2 neg d cl f} def
/m42 {mp x y w2 add m w8 neg w2 -3 4 div mul d w2 -3 4 div mul w8 neg d w2 3 4 div mul w8 neg d w8 w2 -3 4 div mul d w8 w2 3 4 div mul d w2 3 4 div mul w8 d w2 -3 4 div mul w8 d w8 neg w2 3 4 div mul d cl s} def
/m43 {mp x y w2 add m w8 neg w2 -3 4 div mul d w2 -3 4 div mul w8 neg d w2 3 4 div mul w8 neg d w8 w2 -3 4 div mul d w8 w2 3 4 div mul d w2 3 4 div mul w8 d w2 -3 4 div mul w8 d w8 neg w2 3 4 div mul d cl f} def
/m44 {mp x y m w6 neg w2 d w2 2 3 div mul 0 d w6 neg w2 neg d w2 w6 d 0 w2 -2 3 div mul d w2 neg w6 d w6 w2 neg d w2 -2 3 div mul 0 d w6 w2 d w2 neg w6 neg d 0 w2 2 3 div mul d w2 w6 neg d cl s} def
/m45 {mp x y m w6 neg w2 d w2 2 3 div mul 0 d w6 neg w2 neg d w2 w6 d 0 w2 -2 3 div mul d w2 neg w6 d w6 w2 neg d w2 -2 3 div mul 0 d w6 w2 d w2 neg w6 neg d 0 w2 2 3 div mul d w2 w6 neg d cl f} def
/m46 {mp x y w4 add m w4 neg w4 d w4 neg w4 neg d  w4 w4 neg d w4 neg w4 neg d w4 w4 neg d w4 w4 d w4 w4 neg d w4 w4 d w4 neg w4 d w4 w4 d w4 neg w4 d w4 neg w4 neg d cl s} def
/m47 {mp x y w4 add m w4 neg w4 d w4 neg w4 neg d w4 w4 neg d w4 neg w4 neg d  w4 w4 neg d w4 w4 d w4 w4 neg d w4 w4 d w4 neg w4 d w4 w4 d w4 neg w4 d w4 neg w4 neg d cl f} def
/m48 {mp x y w4 add m w4 neg w4 d w4 neg w4 neg d w4 w4 neg d  w4 neg w4 neg d w4 w4 neg d w4 w4 d w4 w4 neg d w4 w4 d w4 neg w4 d w4 w4 d w4 neg w4 d w4 neg w4 neg d  w4 w4 neg d w4 neg w4 neg d w4 neg w4 d w4 w4 d cl f} def
/m49 {mp x w2 sub w3 add y w2 sub w3 add m  0 w3 neg d w3 0 d 0 w3 d w3 0 d 0 w3 d w3 neg 0 d 0 w3 d w3 neg 0 d 0 w3 neg d w3 neg 0 d 0 w3 neg d w3 0 d 0 w3 d w3 0 d 0 w3 neg d w3 neg 0 d cl f } def
/m2 {mp x y w2 sub m 0 w d x w2 sub y m w 0 d s} def
/m5 {mp x w2 sub y w2 sub m w w d x w2 sub y w2 add m w w neg d s} def
%%IncludeResource: ProcSet (FontSetInit)
%%IncludeResource: font Times-Roman
%%IncludeResource: font Times-Italic
%%IncludeResource: font Times-Bold
%%IncludeResource: font Times-BoldItalic
%%IncludeResource: font Helvetica
%%IncludeResource: font Helvetica-Oblique
%%IncludeResource: font Helvetica-Bold
%%IncludeResource: font Helvetica-BoldOblique
%%IncludeResource: font Courier
%%IncludeResource: font Courier-Oblique
%%IncludeResource: font Courier-Bold
%%IncludeResource: font Courier-BoldOblique
%%IncludeResource: font Symbol
%%IncludeResource: font ZapfDingbats
/reEncode {exch findfont dup length dict begin {1 index /FID eq  {pop pop} {def} ifelse } forall /Encoding exch def currentdict end dup /FontName get exch definefont pop } def [/Times-Bold /Times-Italic /Times-BoldItalic /Helvetica /Helvetica-Oblique
 /Helvetica-Bold /Helvetica-BoldOblique /Courier /Courier-Oblique /Courier-Bold /Courier-BoldOblique /Times-Roman /AvantGarde-Book /AvantGarde-BookOblique /AvantGarde-Demi /AvantGarde-DemiOblique /Bookman-Demi /Bookman-DemiItalic /Bookman-Light
 /Bookman-LightItalic /Helvetica-Narrow /Helvetica-Narrow-Bold /Helvetica-Narrow-BoldOblique /Helvetica-Narrow-Oblique /NewCenturySchlbk-Roman /NewCenturySchlbk-Bold /NewCenturySchlbk-BoldItalic /NewCenturySchlbk-Italic /Palatino-Bold
 /Palatino-BoldItalic /Palatino-Italic /Palatino-Roman ] {ISOLatin1Encoding reEncode } forall
%%EndProlog
%%BeginSetup
%%EndSetup
newpath  gsave  .25 .25 scale  gsave  0 0 t black[  ] 0 sd 3 lw 1 1 1 c 2268 1103 0 0 bf black 1 1 1 c 1814 883 227 110 bf black 1814 883 227 110 bl 1 1 1 c 1814 883 227 110 bf black 1814 883 227 110 bl 0 0 1 c 1 1 1 c black 0 0 1 c 1143 943 m 4 Y s
 1143 947 m 4 Y s 1134 947 m 9 X s 1143 947 m 9 X s black /w 2 def /w2 {w 2 div} def /w3 {w 3 div} def 1143 947 m20 1 1 1 c 453 176 1769 855 bf black 1769 855 m 453 X s 2222 855 m 176 Y s 2222 1031 m -453 X s 1769 1031 m -176 Y s 1 1 1 c black
 gsave  2268 1103 0 0 C 1961.1 993.927 t 0 r /Helvetica findfont 37.0407 sf 0 0 m (h1.1) show NC gr  1769 987 m 453 X s
 gsave  2268 1103 0 0 C 1790.3 950.712 t 0 r /Helvetica findfont 37.0407 sf 0 0 m (Entries ) show NC gr 
 gsave  2268 1103 0 0 C 2084.57 950.712 t 0 r /Helvetica findfont 37.0407 sf 0 0 m ( 43990) show NC gr 
 gsave  2268 1103 0 0 C 1790.3 907.498 t 0 r /Helvetica findfont 37.0407 sf 0 0 m (Mean  ) show NC gr 
 gsave  2268 1103 0 0 C 2156.59 907.498 t 0 r /Helvetica findfont 37.0407 sf 0 0 m (06) show NC gr 
 gsave  2268 1103 0 0 C 2136.02 907.498 t 0 r /Symbol findfont 37.0407 sf 0 0 m (-) show NC gr 
 gsave  2268 1103 0 0 C 2074.28 907.498 t 0 r /Helvetica findfont 37.0407 sf 0 0 m (  1e) show NC gr 
 gsave  2268 1103 0 0 C 1790.3 864.284 t 0 r /Helvetica findfont 37.0407 sf 0 0 m (Std Dev   ) show NC gr 
 gsave  2268 1103 0 0 C 2156.59 864.284 t 0 r /Helvetica findfont 37.0407 sf 0 0 m (08) show NC gr 
 gsave  2268 1103 0 0 C 2136.02 864.284 t 0 r /Symbol findfont 37.0407 sf 0 0 m (-) show NC gr 
 gsave  2268 1103 0 0 C 2012.55 864.284 t 0 r /Helvetica findfont 37.0407 sf 0 0 m ( 1.066e) show NC gr  227 110 m 1814 X s 328 137 m -27 Y s 368 124 m -14 Y s 408 124 m -14 Y s 449 124 m -14 Y s 489 124 m -14 Y s 529 137 m -27 Y s 569 124 m -14 Y s
 610 124 m -14 Y s 650 124 m -14 Y s 690 124 m -14 Y s 731 137 m -27 Y s 771 124 m -14 Y s 811 124 m -14 Y s 852 124 m -14 Y s 892 124 m -14 Y s 932 137 m -27 Y s 973 124 m -14 Y s 1013 124 m -14 Y s 1053 124 m -14 Y s 1094 124 m -14 Y s 1134 137 m
 -27 Y s 1174 124 m -14 Y s 1214 124 m -14 Y s 1255 124 m -14 Y s 1295 124 m -14 Y s 1335 137 m -27 Y s 1376 124 m -14 Y s 1416 124 m -14 Y s 1456 124 m -14 Y s 1497 124 m -14 Y s 1537 137 m -27 Y s 1577 124 m -14 Y s 1618 124 m -14 Y s 1658 124 m
 -14 Y s 1698 124 m -14 Y s 1739 137 m -27 Y s 1779 124 m -14 Y s 1819 124 m -14 Y s 1860 124 m -14 Y s 1900 124 m -14 Y s 1940 137 m -27 Y s 328 137 m -27 Y s 287 124 m -14 Y s 247 124 m -14 Y s 1940 137 m -27 Y s 1980 124 m -14 Y s 2021 124 m -14 Y
 s
 gsave  2268 1103 0 0 C 325.135 69.9659 t 0 r /Helvetica-Bold findfont 41.1564 sf 0 0 m (4) show NC gr 
 gsave  2268 1103 0 0 C 304.557 69.9659 t 0 r /Symbol findfont 41.1564 sf 0 0 m (-) show NC gr 
 gsave  2268 1103 0 0 C 526.802 69.9659 t 0 r /Helvetica-Bold findfont 41.1564 sf 0 0 m (3) show NC gr 
 gsave  2268 1103 0 0 C 506.223 69.9659 t 0 r /Symbol findfont 41.1564 sf 0 0 m (-) show NC gr 
 gsave  2268 1103 0 0 C 728.468 69.9659 t 0 r /Helvetica-Bold findfont 41.1564 sf 0 0 m (2) show NC gr 
 gsave  2268 1103 0 0 C 707.89 69.9659 t 0 r /Symbol findfont 41.1564 sf 0 0 m (-) show NC gr 
 gsave  2268 1103 0 0 C 934.25 69.9659 t 0 r /Helvetica-Bold findfont 41.1564 sf 0 0 m (1) show NC gr 
 gsave  2268 1103 0 0 C 911.614 69.9659 t 0 r /Symbol findfont 41.1564 sf 0 0 m (-) show NC gr 
 gsave  2268 1103 0 0 C 1121.51 69.9659 t 0 r /Helvetica-Bold findfont 41.1564 sf 0 0 m (0) show NC gr 
 gsave  2268 1103 0 0 C 1325.24 69.9659 t 0 r /Helvetica-Bold findfont 41.1564 sf 0 0 m (1) show NC gr 
 gsave  2268 1103 0 0 C 1522.79 69.9659 t 0 r /Helvetica-Bold findfont 41.1564 sf 0 0 m (2) show NC gr 
 gsave  2268 1103 0 0 C 1724.45 69.9659 t 0 r /Helvetica-Bold findfont 41.1564 sf 0 0 m (3) show NC gr 
 gsave  2268 1103 0 0 C 1926.12 69.9659 t 0 r /Helvetica-Bold findfont 41.1564 sf 0 0 m (4) show NC gr 
 gsave  2268 1103 0 0 C 1942.58 28.8095 t 0 r /Helvetica-Bold findfont 41.1564 sf 0 0 m ( [m2]) show NC gr  227 110 m 883 Y s 281 110 m -54 X s 254 129 m -27 X s 254 148 m -27 X s 254 167 m -27 X s 254 186 m -27 X s 281 205 m -54 X s 254 224 m -27 X
 s 254 243 m -27 X s 254 262 m -27 X s 254 281 m -27 X s 281 300 m -54 X s 254 319 m -27 X s 254 338 m -27 X s 254 357 m -27 X s 254 376 m -27 X s 281 395 m -54 X s 254 415 m -27 X s 254 434 m -27 X s 254 453 m -27 X s 254 472 m -27 X s 281 491 m -54
 X s 254 510 m -27 X s 254 529 m -27 X s 254 548 m -27 X s 254 567 m -27 X s 281 586 m -54 X s 254 605 m -27 X s 254 624 m -27 X s 254 643 m -27 X s 254 662 m -27 X s 281 681 m -54 X s 254 700 m -27 X s 254 719 m -27 X s 254 738 m -27 X s 254 757 m
 -27 X s 281 776 m -54 X s 254 795 m -27 X s 254 814 m -27 X s 254 833 m -27 X s 254 852 m -27 X s 281 871 m -54 X s 254 890 m -27 X s 254 909 m -27 X s 254 928 m -27 X s 254 947 m -27 X s 281 966 m -54 X s 281 966 m -54 X s 254 985 m -27 X s
 gsave  2268 1103 0 0 C 191.377 94.6597 t 0 r /Helvetica-Bold findfont 41.1564 sf 0 0 m (0) show NC gr 
 gsave  2268 1103 0 0 C 123.469 189.319 t 0 r /Helvetica-Bold findfont 41.1564 sf 0 0 m (5000) show NC gr 
 gsave  2268 1103 0 0 C 100.833 283.979 t 0 r /Helvetica-Bold findfont 41.1564 sf 0 0 m (10000) show NC gr 
 gsave  2268 1103 0 0 C 100.833 380.697 t 0 r /Helvetica-Bold findfont 41.1564 sf 0 0 m (15000) show NC gr 
 gsave  2268 1103 0 0 C 100.833 475.356 t 0 r /Helvetica-Bold findfont 41.1564 sf 0 0 m (20000) show NC gr 
 gsave  2268 1103 0 0 C 100.833 570.016 t 0 r /Helvetica-Bold findfont 41.1564 sf 0 0 m (25000) show NC gr 
 gsave  2268 1103 0 0 C 100.833 664.676 t 0 r /Helvetica-Bold findfont 41.1564 sf 0 0 m (30000) show NC gr 
 gsave  2268 1103 0 0 C 100.833 759.335 t 0 r /Helvetica-Bold findfont 41.1564 sf 0 0 m (35000) show NC gr 
 gsave  2268 1103 0 0 C 100.833 856.053 t 0 r /Helvetica-Bold findfont 41.1564 sf 0 0 m (40000) show NC gr 
 gsave  2268 1103 0 0 C 100.833 950.712 t 0 r /Helvetica-Bold findfont 41.1564 sf 0 0 m (45000) show NC gr  1 1 1 c 453 176 1769 855 bf black 1769 855 m 453 X s 2222 855 m 176 Y s 2222 1031 m -453 X s 1769 1031 m -176 Y s 1 1 1 c black
 gsave  2268 1103 0 0 C 1961.1 993.927 t 0 r /Helvetica findfont 37.0407 sf 0 0 m (h1.1) show NC gr  1769 987 m 453 X s
 gsave  2268 1103 0 0 C 1790.3 950.712 t 0 r /Helvetica findfont 37.0407 sf 0 0 m (Entries ) show NC gr 
 gsave  2268 1103 0 0 C 2084.57 950.712 t 0 r /Helvetica findfont 37.0407 sf 0 0 m ( 43990) show NC gr 
 gsave  2268 1103 0 0 C 1790.3 907.498 t 0 r /Helvetica findfont 37.0407 sf 0 0 m (Mean  ) show NC gr 
 gsave  2268 1103 0 0 C 2156.59 907.498 t 0 r /Helvetica findfont 37.0407 sf 0 0 m (06) show NC gr 
 gsave  2268 1103 0 0 C 2136.02 907.498 t 0 r /Symbol findfont 37.0407 sf 0 0 m (-) show NC gr 
 gsave  2268 1103 0 0 C 2074.28 907.498 t 0 r /Helvetica findfont 37.0407 sf 0 0 m (  1e) show NC gr 
 gsave  2268 1103 0 0 C 1790.3 864.284 t 0 r /Helvetica findfont 37.0407 sf 0 0 m (Std Dev   ) show NC gr 
 gsave  2268 1103 0 0 C 2156.59 864.284 t 0 r /Helvetica findfont 37.0407 sf 0 0 m (08) show NC gr 
 gsave  2268 1103 0 0 C 2136.02 864.284 t 0 r /Symbol findfont 37.0407 sf 0 0 m (-) show NC gr 
 gsave  2268 1103 0 0 C 2012.55 864.284 t 0 r /Helvetica findfont 37.0407 sf 0 0 m ( 1.066e) show NC gr  1 1 1 c black
 gsave  2268 1103 0 0 C 870.457 1047.43 t 0 r /Helvetica findfont 55.5611 sf 0 0 m (Flujo de e\255 incidentes) show NC gr 
 gr  gr showpage
end
%%EOF
