\relax 
\providecommand\hyper@newdestlabel[2]{}
\catcode `"\active 
\catcode `<\active 
\catcode `>\active 
\@nameuse{es@quoting}
\providecommand\HyperFirstAtBeginDocument{\AtBeginDocument}
\HyperFirstAtBeginDocument{\ifx\hyper@anchor\@undefined
\global\let\oldcontentsline\contentsline
\gdef\contentsline#1#2#3#4{\oldcontentsline{#1}{#2}{#3}}
\global\let\oldnewlabel\newlabel
\gdef\newlabel#1#2{\newlabelxx{#1}#2}
\gdef\newlabelxx#1#2#3#4#5#6{\oldnewlabel{#1}{{#2}{#3}}}
\AtEndDocument{\ifx\hyper@anchor\@undefined
\let\contentsline\oldcontentsline
\let\newlabel\oldnewlabel
\fi}
\fi}
\global\let\hyper@last\relax 
\gdef\HyperFirstAtBeginDocument#1{#1}
\providecommand\HyField@AuxAddToFields[1]{}
\providecommand\HyField@AuxAddToCoFields[2]{}
\babel@aux{USenglish}{}
\@writefile{lof}{\contentsline {figure}{\numberline {1}{\ignorespaces Al abrir la terminal me encuentro en el directorio personal /home/kanaro el cual contiene estos archivos y subdirectorios.}}{1}{figure.1}}
\newlabel{fig:Rectangular}{{1}{1}{Al abrir la terminal me encuentro en el directorio personal /home/kanaro el cual contiene estos archivos y subdirectorios}{figure.1}{}}
\@writefile{lof}{\contentsline {figure}{\numberline {2}{\ignorespaces El directorio que se encuentra a un nivel superior es /home y este contiene \IeC {\'u}nicamente un subdirectorio que es la carpeta personal /kanaro }}{1}{figure.2}}
\newlabel{fig:Rectangular}{{2}{1}{El directorio que se encuentra a un nivel superior es /home y este contiene únicamente un subdirectorio que es la carpeta personal /kanaro}{figure.2}{}}
\@writefile{lof}{\contentsline {figure}{\numberline {3}{\ignorespaces Directorio ra\IeC {\'\i }z}}{2}{figure.3}}
\newlabel{fig:Rectangular}{{3}{2}{Directorio raíz}{figure.3}{}}
\@writefile{lof}{\contentsline {figure}{\numberline {4}{\ignorespaces Listado del contenido del directorio /local }}{2}{figure.4}}
\newlabel{fig:Rectangular}{{4}{2}{Listado del contenido del directorio /local}{figure.4}{}}
\@writefile{lof}{\contentsline {figure}{\numberline {5}{\ignorespaces Listado del contenido del directorio /local}}{3}{figure.5}}
\newlabel{fig:Rectangular}{{5}{3}{Listado del contenido del directorio /local}{figure.5}{}}
\@writefile{lof}{\contentsline {figure}{\numberline {6}{\ignorespaces Archivos y directorios de la carpeta /etc ordenados por tama\IeC {\~n}o de menor a mayor}}{3}{figure.6}}
\newlabel{fig:Rectangular}{{6}{3}{Archivos y directorios de la carpeta /etc ordenados por tamaño de menor a mayor}{figure.6}{}}
\@writefile{lof}{\contentsline {figure}{\numberline {7}{\ignorespaces Se muestra una parte del total de archivos y directorios de la carpeta /etc ordenados por tama\IeC {\~n}oy con las dem\IeC {\'a}s especificaciones}}{4}{figure.7}}
\newlabel{fig:Rectangular}{{7}{4}{Se muestra una parte del total de archivos y directorios de la carpeta /etc ordenados por tamañoy con las demás especificaciones}{figure.7}{}}
\@writefile{lof}{\contentsline {figure}{\numberline {8}{\ignorespaces Primeras 10 l\IeC {\'\i }neas del archivo .bashrc}}{4}{figure.8}}
\newlabel{fig:Rectangular}{{8}{4}{Primeras 10 líneas del archivo .bashrc}{figure.8}{}}
\@writefile{lof}{\contentsline {figure}{\numberline {9}{\ignorespaces Creaci\IeC {\'o}n de carpetas y representaci\IeC {\'o}n en diagrama de \IeC {\'a}rbol de las mismas}}{5}{figure.9}}
\newlabel{fig:Rectangular}{{9}{5}{Creación de carpetas y representación en diagrama de árbol de las mismas}{figure.9}{}}
\@writefile{lof}{\contentsline {figure}{\numberline {10}{\ignorespaces Archivo que contiene una lista de los directorios y archivos de mi carpeta personal}}{5}{figure.10}}
\newlabel{fig:Rectangular}{{10}{5}{Archivo que contiene una lista de los directorios y archivos de mi carpeta personal}{figure.10}{}}
\@writefile{lof}{\contentsline {figure}{\numberline {11}{\ignorespaces Uso del comando ``$mv$'' para mover el archivo }}{6}{figure.11}}
\newlabel{fig:Rectangular}{{11}{6}{Uso del comando ``$mv$'' para mover el archivo}{figure.11}{}}
\@writefile{lof}{\contentsline {figure}{\numberline {12}{\ignorespaces Uso del comando ''$cp$`` para copiar el archivo y ''$mv$`` para mover el mismo}}{6}{figure.12}}
\newlabel{fig:Rectangular}{{12}{6}{Uso del comando ''$cp$`` para copiar el archivo y ''$mv$`` para mover el mismo}{figure.12}{}}
\@writefile{lof}{\contentsline {figure}{\numberline {13}{\ignorespaces Se crea un archivo .tar mostrado en color rojo}}{6}{figure.13}}
\newlabel{fig:Rectangular}{{13}{6}{Se crea un archivo .tar mostrado en color rojo}{figure.13}{}}
\@writefile{lof}{\contentsline {figure}{\numberline {14}{\ignorespaces Seg\IeC {\'u}n el calendario, el d\IeC {\'\i }a 28 de noviembre del a\IeC {\~n}o 1997 fue un viernes, as\IeC {\'\i } que nac\IeC {\'\i } en este d\IeC {\'\i }a de la semana}}{7}{figure.14}}
\newlabel{fig:Rectangular}{{14}{7}{Según el calendario, el día 28 de noviembre del año 1997 fue un viernes, así que nací en este día de la semana}{figure.14}{}}
\@writefile{lof}{\contentsline {figure}{\numberline {15}{\ignorespaces Tama\IeC {\~n}o de directorios y archivos de mi carpeta personal}}{7}{figure.15}}
\newlabel{fig:Rectangular}{{15}{7}{Tamaño de directorios y archivos de mi carpeta personal}{figure.15}{}}
\@writefile{lof}{\contentsline {figure}{\numberline {16}{\ignorespaces Se muestran las columnas con el tama\IeC {\~n}o, el espacio usado, el espacio disponible, el porcentaje de eso y el disco.}}{8}{figure.16}}
\newlabel{fig:Rectangular}{{16}{8}{Se muestran las columnas con el tamaño, el espacio usado, el espacio disponible, el porcentaje de eso y el disco}{figure.16}{}}
