%!PS-Adobe-2.0 EPSF-2.0
%%BoundingBox:  0 0 567 262
%%Title: : Canvas_1
%%Creator: ROOT Version 5.34/38
%%CreationDate: Tue Aug 25 23:27:44 2020
%%EndComments
%%BeginProlog
80 dict begin
/s {stroke} def /l {lineto} def /m {moveto} def /t {translate} def
/r {rotate} def /rl {roll}  def /R {repeat} def
/d {rlineto} def /rm {rmoveto} def /gr {grestore} def /f {eofill} def
/c {setrgbcolor} def /black {0 setgray} def /sd {setdash} def
/cl {closepath} def /sf {scalefont setfont} def /lw {setlinewidth} def
/box {m dup 0 exch d exch 0 d 0 exch neg d cl} def
/NC{systemdict begin initclip end}def/C{NC box clip newpath}def
/bl {box s} def /bf {gsave box gsave f grestore 1 lw [] 0 sd s grestore} def /Y { 0 exch d} def /X { 0 d} def 
/K {{pop pop 0 moveto} exch kshow} bind def
/ita {/ang 15 def gsave [1 0 ang dup sin exch cos div 1 0 0] concat} def 
/mp {newpath /y exch def /x exch def} def
/side {[w .77 mul w .23 mul] .385 w mul sd w 0 l currentpoint t -144 r} def
/mr {mp x y w2 0 360 arc} def /m24 {mr s} def /m20 {mr f} def
/mb {mp x y w2 add m w2 neg 0 d 0 w neg d w 0 d 0 w d cl} def
/mt {mp x y w2 add m w2 neg w neg d w 0 d cl} def
/m21 {mb f} def /m25 {mb s} def /m22 {mt f} def /m26{mt s} def
/m23 {mp x y w2 sub m w2 w d w neg 0 d cl f} def
/m27 {mp x y w2 add m w3 neg w2 neg d w3 w2 neg d w3 w2 d cl s} def
/m28 {mp x w2 sub y w2 sub w3 add m w3 0 d  0 w3 neg d w3 0 d 0 w3 d w3 0 d  0 w3 d w3 neg 0 d 0 w3 d w3 neg 0 d 0 w3 neg d w3 neg 0 d cl s } def
/m29 {mp gsave x w2 sub y w2 add w3 sub m currentpoint t 4 {side} repeat cl fill gr} def
/m30 {mp gsave x w2 sub y w2 add w3 sub m currentpoint t 4 {side} repeat cl s gr} def
/m31 {mp x y w2 sub m 0 w d x w2 sub y m w 0 d x w2 sub y w2 add m w w neg d x w2 sub y w2 sub m w w d s} def
/m32 {mp x y w2 sub m w2 w d w neg 0 d cl s} def
/m33 {mp x y w2 add m w3 neg w2 neg d w3 w2 neg d w3 w2 d cl f} def
/m34 {mp x w2 sub y w2 sub w3 add m w3 0 d  0 w3 neg d w3 0 d 0 w3 d w3 0 d  0 w3 d w3 neg 0 d 0 w3 d w3 neg 0 d 0 w3 neg d w3 neg 0 d cl f } def
/m2 {mp x y w2 sub m 0 w d x w2 sub y m w 0 d s} def
/m5 {mp x w2 sub y w2 sub m w w d x w2 sub y w2 add m w w neg d s} def
/reEncode {exch findfont dup length dict begin {1 index /FID eq  {pop pop} {def} ifelse } forall /Encoding exch def currentdict end dup /FontName get exch definefont pop } def [/Times-Bold /Times-Italic /Times-BoldItalic /Helvetica /Helvetica-Oblique
 /Helvetica-Bold /Helvetica-BoldOblique /Courier /Courier-Oblique /Courier-Bold /Courier-BoldOblique /Times-Roman /AvantGarde-Book /AvantGarde-BookOblique /AvantGarde-Demi /AvantGarde-DemiOblique /Bookman-Demi /Bookman-DemiItalic /Bookman-Light
 /Bookman-LightItalic /Helvetica-Narrow /Helvetica-Narrow-Bold /Helvetica-Narrow-BoldOblique /Helvetica-Narrow-Oblique /NewCenturySchlbk-Roman /NewCenturySchlbk-Bold /NewCenturySchlbk-BoldItalic /NewCenturySchlbk-Italic /Palatino-Bold
 /Palatino-BoldItalic /Palatino-Italic /Palatino-Roman ] {ISOLatin1Encoding reEncode } forall
%%EndProlog
%%BeginSetup
%%EndSetup
newpath  gsave  .25 .25 scale  gsave  0 0 t black[  ] 0 sd 3 lw 1 1 1 c 2268 1047 0 0 bf black 1 1 1 c 1814 838 227 105 bf black 1814 838 227 105 bl 1 1 1 c 1814 838 227 105 bf black 1814 838 227 105 bl 0 0 1 c 1 1 1 c black 0 0 1 c 595 105 m 399 Y s
 595 504 m 399 Y s 590 504 m 5 X s 595 504 m 5 X s black /w 2 def /w2 {w 2 div} def /w3 {w 3 div} def 595 504 m20 0 0 1 c 867 105 m 399 Y s 867 504 m 399 Y s 862 504 m 5 X s 867 504 m 5 X s black 867 504 m20 0 0 1 c 927 105 m 399 Y s 927 504 m 399 Y
 s 922 504 m 5 X s 927 504 m 5 X s black 927 504 m20 0 0 1 c 1028 105 m 399 Y s 1028 504 m 399 Y s 1023 504 m 5 X s 1028 504 m 5 X s black 1028 504 m20 1 1 1 c 453 167 1769 812 bf black 1769 812 m 453 X s 2222 812 m 167 Y s 2222 979 m -453 X s 1769
 979 m -167 Y s 1 1 1 c black
 gsave  2268 1047 0 0 C 1959.04 944.539 t 0 r /Helvetica findfont 34.9829 sf 0 0 m (h1.3) show NC gr  1769 937 m 453 X s
 gsave  2268 1047 0 0 C 1790.3 903.383 t 0 r /Helvetica findfont 34.9829 sf 0 0 m (Entries ) show NC gr 
 gsave  2268 1047 0 0 C 2168.94 903.383 t 0 r /Helvetica findfont 34.9829 sf 0 0 m ( 4) show NC gr 
 gsave  2268 1047 0 0 C 1790.3 862.226 t 0 r /Helvetica findfont 34.9829 sf 0 0 m (Mean  ) show NC gr 
 gsave  2268 1047 0 0 C 2090.74 862.226 t 0 r /Helvetica findfont 34.9829 sf 0 0 m (  62.46) show NC gr 
 gsave  2268 1047 0 0 C 1790.3 819.012 t 0 r /Helvetica findfont 34.9829 sf 0 0 m (RMS   ) show NC gr 
 gsave  2268 1047 0 0 C 2090.74 819.012 t 0 r /Helvetica findfont 34.9829 sf 0 0 m (  15.96) show NC gr  227 105 m 1814 X s
 gsave  2268 1047 0 0 C 1905.54 22.636 t 0 r /Helvetica-Bold findfont 39.0986 sf 0 0 m (Grades) show NC gr  227 130 m -25 Y s 277 117 m -12 Y s 328 117 m -12 Y s 378 117 m -12 Y s 428 130 m -25 Y s 479 117 m -12 Y s 529 117 m -12 Y s 580 117 m -12 Y
 s 630 130 m -25 Y s 680 117 m -12 Y s 731 117 m -12 Y s 781 117 m -12 Y s 831 130 m -25 Y s 882 117 m -12 Y s 932 117 m -12 Y s 983 117 m -12 Y s 1033 130 m -25 Y s 1083 117 m -12 Y s 1134 117 m -12 Y s 1184 117 m -12 Y s 1235 130 m -25 Y s 1285 117
 m -12 Y s 1335 117 m -12 Y s 1386 117 m -12 Y s 1436 130 m -25 Y s 1487 117 m -12 Y s 1537 117 m -12 Y s 1587 117 m -12 Y s 1638 130 m -25 Y s 1688 117 m -12 Y s 1739 117 m -12 Y s 1789 117 m -12 Y s 1839 130 m -25 Y s 1890 117 m -12 Y s 1940 117 m
 -12 Y s 1991 117 m -12 Y s 2041 130 m -25 Y s
 gsave  2268 1047 0 0 C 216.071 67.908 t 0 r /Helvetica-Bold findfont 39.0986 sf 0 0 m (0) show NC gr 
 gsave  2268 1047 0 0 C 405.39 67.908 t 0 r /Helvetica-Bold findfont 39.0986 sf 0 0 m (20) show NC gr 
 gsave  2268 1047 0 0 C 607.057 67.908 t 0 r /Helvetica-Bold findfont 39.0986 sf 0 0 m (40) show NC gr 
 gsave  2268 1047 0 0 C 808.723 67.908 t 0 r /Helvetica-Bold findfont 39.0986 sf 0 0 m (60) show NC gr 
 gsave  2268 1047 0 0 C 1010.39 67.908 t 0 r /Helvetica-Bold findfont 39.0986 sf 0 0 m (80) show NC gr 
 gsave  2268 1047 0 0 C 1199.71 67.908 t 0 r /Helvetica-Bold findfont 39.0986 sf 0 0 m (100) show NC gr 
 gsave  2268 1047 0 0 C 1401.37 67.908 t 0 r /Helvetica-Bold findfont 39.0986 sf 0 0 m (120) show NC gr 
 gsave  2268 1047 0 0 C 1603.04 67.908 t 0 r /Helvetica-Bold findfont 39.0986 sf 0 0 m (140) show NC gr 
 gsave  2268 1047 0 0 C 1804.71 67.908 t 0 r /Helvetica-Bold findfont 39.0986 sf 0 0 m (160) show NC gr 
 gsave  2268 1047 0 0 C 2006.37 67.908 t 0 r /Helvetica-Bold findfont 39.0986 sf 0 0 m (180) show NC gr  227 105 m 838 Y s
 gsave  2268 1047 0 0 C 94.6597 703.774 t 90 r /Helvetica-Bold findfont 39.0986 sf 0 0 m (No. neutrons) show NC gr  281 105 m -54 X s 254 125 m -27 X s 254 145 m -27 X s 254 165 m -27 X s 281 185 m -54 X s 254 204 m -27 X s 254 224 m -27 X s 254 244
 m -27 X s 281 264 m -54 X s 254 284 m -27 X s 254 304 m -27 X s 254 324 m -27 X s 281 344 m -54 X s 254 364 m -27 X s 254 384 m -27 X s 254 404 m -27 X s 281 424 m -54 X s 254 444 m -27 X s 254 464 m -27 X s 254 484 m -27 X s 281 504 m -54 X s 254
 524 m -27 X s 254 544 m -27 X s 254 564 m -27 X s 281 584 m -54 X s 254 604 m -27 X s 254 623 m -27 X s 254 643 m -27 X s 281 663 m -54 X s 254 683 m -27 X s 254 703 m -27 X s 254 723 m -27 X s 281 743 m -54 X s 254 763 m -27 X s 254 783 m -27 X s
 254 803 m -27 X s 281 823 m -54 X s 254 843 m -27 X s 254 863 m -27 X s 254 883 m -27 X s 281 903 m -54 X s 281 903 m -54 X s 254 923 m -27 X s 254 943 m -27 X s
 gsave  2268 1047 0 0 C 193.435 90.544 t 0 r /Helvetica-Bold findfont 39.0986 sf 0 0 m (0) show NC gr 
 gsave  2268 1047 0 0 C 160.51 170.799 t 0 r /Helvetica-Bold findfont 39.0986 sf 0 0 m (0.2) show NC gr 
 gsave  2268 1047 0 0 C 160.51 251.054 t 0 r /Helvetica-Bold findfont 39.0986 sf 0 0 m (0.4) show NC gr 
 gsave  2268 1047 0 0 C 160.51 331.309 t 0 r /Helvetica-Bold findfont 39.0986 sf 0 0 m (0.6) show NC gr 
 gsave  2268 1047 0 0 C 160.51 411.564 t 0 r /Helvetica-Bold findfont 39.0986 sf 0 0 m (0.8) show NC gr 
 gsave  2268 1047 0 0 C 197.551 487.703 t 0 r /Helvetica-Bold findfont 39.0986 sf 0 0 m (1) show NC gr 
 gsave  2268 1047 0 0 C 160.51 567.958 t 0 r /Helvetica-Bold findfont 39.0986 sf 0 0 m (1.2) show NC gr 
 gsave  2268 1047 0 0 C 160.51 648.213 t 0 r /Helvetica-Bold findfont 39.0986 sf 0 0 m (1.4) show NC gr 
 gsave  2268 1047 0 0 C 160.51 730.526 t 0 r /Helvetica-Bold findfont 39.0986 sf 0 0 m (1.6) show NC gr 
 gsave  2268 1047 0 0 C 160.51 808.723 t 0 r /Helvetica-Bold findfont 39.0986 sf 0 0 m (1.8) show NC gr 
 gsave  2268 1047 0 0 C 193.435 886.92 t 0 r /Helvetica-Bold findfont 39.0986 sf 0 0 m (2) show NC gr  1 1 1 c 453 167 1769 812 bf black 1769 812 m 453 X s 2222 812 m 167 Y s 2222 979 m -453 X s 1769 979 m -167 Y s 1 1 1 c black
 gsave  2268 1047 0 0 C 1959.04 944.539 t 0 r /Helvetica findfont 34.9829 sf 0 0 m (h1.3) show NC gr  1769 937 m 453 X s
 gsave  2268 1047 0 0 C 1790.3 903.383 t 0 r /Helvetica findfont 34.9829 sf 0 0 m (Entries ) show NC gr 
 gsave  2268 1047 0 0 C 2168.94 903.383 t 0 r /Helvetica findfont 34.9829 sf 0 0 m ( 4) show NC gr 
 gsave  2268 1047 0 0 C 1790.3 862.226 t 0 r /Helvetica findfont 34.9829 sf 0 0 m (Mean  ) show NC gr 
 gsave  2268 1047 0 0 C 2090.74 862.226 t 0 r /Helvetica findfont 34.9829 sf 0 0 m (  62.46) show NC gr 
 gsave  2268 1047 0 0 C 1790.3 819.012 t 0 r /Helvetica findfont 34.9829 sf 0 0 m (RMS   ) show NC gr 
 gsave  2268 1047 0 0 C 2090.74 819.012 t 0 r /Helvetica findfont 34.9829 sf 0 0 m (  15.96) show NC gr  1 1 1 c black
 gsave  2268 1047 0 0 C 829.301 998.042 t 0 r /Helvetica findfont 49.3877 sf 0 0 m (Distribucion angular \(Theta\)) show NC gr 
 gr  gr showpage
end
%%EOF
