%!PS-Adobe-2.0 EPSF-2.0
%%BoundingBox:  0 0 567 262
%%Title: : Canvas_1
%%Creator: ROOT Version 5.34/38
%%CreationDate: Tue Aug 25 23:35:01 2020
%%EndComments
%%BeginProlog
80 dict begin
/s {stroke} def /l {lineto} def /m {moveto} def /t {translate} def
/r {rotate} def /rl {roll}  def /R {repeat} def
/d {rlineto} def /rm {rmoveto} def /gr {grestore} def /f {eofill} def
/c {setrgbcolor} def /black {0 setgray} def /sd {setdash} def
/cl {closepath} def /sf {scalefont setfont} def /lw {setlinewidth} def
/box {m dup 0 exch d exch 0 d 0 exch neg d cl} def
/NC{systemdict begin initclip end}def/C{NC box clip newpath}def
/bl {box s} def /bf {gsave box gsave f grestore 1 lw [] 0 sd s grestore} def /Y { 0 exch d} def /X { 0 d} def 
/K {{pop pop 0 moveto} exch kshow} bind def
/ita {/ang 15 def gsave [1 0 ang dup sin exch cos div 1 0 0] concat} def 
/mp {newpath /y exch def /x exch def} def
/side {[w .77 mul w .23 mul] .385 w mul sd w 0 l currentpoint t -144 r} def
/mr {mp x y w2 0 360 arc} def /m24 {mr s} def /m20 {mr f} def
/mb {mp x y w2 add m w2 neg 0 d 0 w neg d w 0 d 0 w d cl} def
/mt {mp x y w2 add m w2 neg w neg d w 0 d cl} def
/m21 {mb f} def /m25 {mb s} def /m22 {mt f} def /m26{mt s} def
/m23 {mp x y w2 sub m w2 w d w neg 0 d cl f} def
/m27 {mp x y w2 add m w3 neg w2 neg d w3 w2 neg d w3 w2 d cl s} def
/m28 {mp x w2 sub y w2 sub w3 add m w3 0 d  0 w3 neg d w3 0 d 0 w3 d w3 0 d  0 w3 d w3 neg 0 d 0 w3 d w3 neg 0 d 0 w3 neg d w3 neg 0 d cl s } def
/m29 {mp gsave x w2 sub y w2 add w3 sub m currentpoint t 4 {side} repeat cl fill gr} def
/m30 {mp gsave x w2 sub y w2 add w3 sub m currentpoint t 4 {side} repeat cl s gr} def
/m31 {mp x y w2 sub m 0 w d x w2 sub y m w 0 d x w2 sub y w2 add m w w neg d x w2 sub y w2 sub m w w d s} def
/m32 {mp x y w2 sub m w2 w d w neg 0 d cl s} def
/m33 {mp x y w2 add m w3 neg w2 neg d w3 w2 neg d w3 w2 d cl f} def
/m34 {mp x w2 sub y w2 sub w3 add m w3 0 d  0 w3 neg d w3 0 d 0 w3 d w3 0 d  0 w3 d w3 neg 0 d 0 w3 d w3 neg 0 d 0 w3 neg d w3 neg 0 d cl f } def
/m2 {mp x y w2 sub m 0 w d x w2 sub y m w 0 d s} def
/m5 {mp x w2 sub y w2 sub m w w d x w2 sub y w2 add m w w neg d s} def
/reEncode {exch findfont dup length dict begin {1 index /FID eq  {pop pop} {def} ifelse } forall /Encoding exch def currentdict end dup /FontName get exch definefont pop } def [/Times-Bold /Times-Italic /Times-BoldItalic /Helvetica /Helvetica-Oblique
 /Helvetica-Bold /Helvetica-BoldOblique /Courier /Courier-Oblique /Courier-Bold /Courier-BoldOblique /Times-Roman /AvantGarde-Book /AvantGarde-BookOblique /AvantGarde-Demi /AvantGarde-DemiOblique /Bookman-Demi /Bookman-DemiItalic /Bookman-Light
 /Bookman-LightItalic /Helvetica-Narrow /Helvetica-Narrow-Bold /Helvetica-Narrow-BoldOblique /Helvetica-Narrow-Oblique /NewCenturySchlbk-Roman /NewCenturySchlbk-Bold /NewCenturySchlbk-BoldItalic /NewCenturySchlbk-Italic /Palatino-Bold
 /Palatino-BoldItalic /Palatino-Italic /Palatino-Roman ] {ISOLatin1Encoding reEncode } forall
%%EndProlog
%%BeginSetup
%%EndSetup
newpath  gsave  .25 .25 scale  gsave  0 0 t black[  ] 0 sd 3 lw 1 1 1 c 2268 1047 0 0 bf black 1 1 1 c 1814 838 227 105 bf black 1814 838 227 105 bl 1 1 1 c 1814 838 227 105 bf black 1814 838 227 105 bl 0 0 1 c 6 lw 1 1 1 c black 0 0 1 c 1143 519 m
 192 Y s 1143 711 m 192 Y s 1134 711 m 9 X s 1143 711 m 9 X s 3 lw black /w 2 def /w2 {w 2 div} def /w3 {w 3 div} def 1143 711 m20 6 lw 3 lw 1 1 1 c 453 167 1769 812 bf black 1769 812 m 453 X s 2222 812 m 167 Y s 2222 979 m -453 X s 1769 979 m -167 Y
 s 1 1 1 c black
 gsave  2268 1047 0 0 C 1963.16 944.539 t 0 r /Helvetica findfont 34.9829 sf 0 0 m (h1.1) show NC gr  1769 937 m 453 X s
 gsave  2268 1047 0 0 C 1790.3 903.383 t 0 r /Helvetica findfont 34.9829 sf 0 0 m (Entries ) show NC gr 
 gsave  2268 1047 0 0 C 2150.42 903.383 t 0 r /Helvetica findfont 34.9829 sf 0 0 m ( 10) show NC gr 
 gsave  2268 1047 0 0 C 1790.3 862.226 t 0 r /Helvetica findfont 34.9829 sf 0 0 m (Mean  ) show NC gr 
 gsave  2268 1047 0 0 C 2121.61 862.226 t 0 r /Helvetica findfont 34.9829 sf 0 0 m (      0) show NC gr 
 gsave  2268 1047 0 0 C 1790.3 819.012 t 0 r /Helvetica findfont 34.9829 sf 0 0 m (RMS   ) show NC gr 
 gsave  2268 1047 0 0 C 2121.61 819.012 t 0 r /Helvetica findfont 34.9829 sf 0 0 m (      0) show NC gr  227 105 m 1814 X s 227 130 m -25 Y s 272 117 m -12 Y s 317 117 m -12 Y s 363 117 m -12 Y s 408 130 m -25 Y s 454 117 m -12 Y s 499 117 m -12 Y s
 544 117 m -12 Y s 590 130 m -25 Y s 635 117 m -12 Y s 680 117 m -12 Y s 726 117 m -12 Y s 771 130 m -25 Y s 816 117 m -12 Y s 862 117 m -12 Y s 907 117 m -12 Y s 952 130 m -25 Y s 998 117 m -12 Y s 1043 117 m -12 Y s 1089 117 m -12 Y s 1134 130 m
 -25 Y s 1179 117 m -12 Y s 1225 117 m -12 Y s 1270 117 m -12 Y s 1315 130 m -25 Y s 1361 117 m -12 Y s 1406 117 m -12 Y s 1451 117 m -12 Y s 1497 130 m -25 Y s 1542 117 m -12 Y s 1587 117 m -12 Y s 1633 117 m -12 Y s 1678 130 m -25 Y s 1723 117 m
 -12 Y s 1769 117 m -12 Y s 1814 117 m -12 Y s 1860 130 m -25 Y s 1905 117 m -12 Y s 1950 117 m -12 Y s 1996 117 m -12 Y s 2041 130 m -25 Y s
 gsave  2268 1047 0 0 C 214.013 67.908 t 0 r /Helvetica-Bold findfont 39.0986 sf 0 0 m (10) show NC gr 
 gsave  2268 1047 0 0 C 193.435 67.908 t 0 r /Symbol findfont 39.0986 sf 0 0 m (-) show NC gr 
 gsave  2268 1047 0 0 C 407.448 67.908 t 0 r /Helvetica-Bold findfont 39.0986 sf 0 0 m (8) show NC gr 
 gsave  2268 1047 0 0 C 384.812 67.908 t 0 r /Symbol findfont 39.0986 sf 0 0 m (-) show NC gr 
 gsave  2268 1047 0 0 C 588.536 67.908 t 0 r /Helvetica-Bold findfont 39.0986 sf 0 0 m (6) show NC gr 
 gsave  2268 1047 0 0 C 565.9 67.908 t 0 r /Symbol findfont 39.0986 sf 0 0 m (-) show NC gr 
 gsave  2268 1047 0 0 C 769.624 67.908 t 0 r /Helvetica-Bold findfont 39.0986 sf 0 0 m (4) show NC gr 
 gsave  2268 1047 0 0 C 746.988 67.908 t 0 r /Symbol findfont 39.0986 sf 0 0 m (-) show NC gr 
 gsave  2268 1047 0 0 C 950.712 67.908 t 0 r /Helvetica-Bold findfont 39.0986 sf 0 0 m (2) show NC gr 
 gsave  2268 1047 0 0 C 928.076 67.908 t 0 r /Symbol findfont 39.0986 sf 0 0 m (-) show NC gr 
 gsave  2268 1047 0 0 C 1123.57 67.908 t 0 r /Helvetica-Bold findfont 39.0986 sf 0 0 m (0) show NC gr 
 gsave  2268 1047 0 0 C 1304.66 67.908 t 0 r /Helvetica-Bold findfont 39.0986 sf 0 0 m (2) show NC gr 
 gsave  2268 1047 0 0 C 1485.75 67.908 t 0 r /Helvetica-Bold findfont 39.0986 sf 0 0 m (4) show NC gr 
 gsave  2268 1047 0 0 C 1666.83 67.908 t 0 r /Helvetica-Bold findfont 39.0986 sf 0 0 m (6) show NC gr 
 gsave  2268 1047 0 0 C 1847.92 67.908 t 0 r /Helvetica-Bold findfont 39.0986 sf 0 0 m (8) show NC gr 
 gsave  2268 1047 0 0 C 2016.66 67.908 t 0 r /Helvetica-Bold findfont 39.0986 sf 0 0 m (10) show NC gr  227 105 m 838 Y s
 gsave  2268 1047 0 0 C 90.544 746.988 t 90 r /Helvetica-Bold findfont 39.0986 sf 0 0 m (No. alphas) show NC gr  281 105 m -54 X s 254 135 m -27 X s 254 165 m -27 X s 254 196 m -27 X s 281 226 m -54 X s 254 256 m -27 X s 254 287 m -27 X s 254 317 m
 -27 X s 281 347 m -54 X s 254 378 m -27 X s 254 408 m -27 X s 254 438 m -27 X s 281 469 m -54 X s 254 499 m -27 X s 254 529 m -27 X s 254 559 m -27 X s 281 590 m -54 X s 254 620 m -27 X s 254 650 m -27 X s 254 681 m -27 X s 281 711 m -54 X s 254 741
 m -27 X s 254 772 m -27 X s 254 802 m -27 X s 281 832 m -54 X s 281 832 m -54 X s 254 863 m -27 X s 254 893 m -27 X s 254 923 m -27 X s
 gsave  2268 1047 0 0 C 193.435 90.544 t 0 r /Helvetica-Bold findfont 39.0986 sf 0 0 m (0) show NC gr 
 gsave  2268 1047 0 0 C 193.435 209.898 t 0 r /Helvetica-Bold findfont 39.0986 sf 0 0 m (2) show NC gr 
 gsave  2268 1047 0 0 C 193.435 331.309 t 0 r /Helvetica-Bold findfont 39.0986 sf 0 0 m (4) show NC gr 
 gsave  2268 1047 0 0 C 193.435 454.778 t 0 r /Helvetica-Bold findfont 39.0986 sf 0 0 m (6) show NC gr 
 gsave  2268 1047 0 0 C 193.435 576.189 t 0 r /Helvetica-Bold findfont 39.0986 sf 0 0 m (8) show NC gr 
 gsave  2268 1047 0 0 C 170.799 697.601 t 0 r /Helvetica-Bold findfont 39.0986 sf 0 0 m (10) show NC gr 
 gsave  2268 1047 0 0 C 170.799 816.954 t 0 r /Helvetica-Bold findfont 39.0986 sf 0 0 m (12) show NC gr  1 1 1 c 453 167 1769 812 bf black 1769 812 m 453 X s 2222 812 m 167 Y s 2222 979 m -453 X s 1769 979 m -167 Y s 1 1 1 c black
 gsave  2268 1047 0 0 C 1963.16 944.539 t 0 r /Helvetica findfont 34.9829 sf 0 0 m (h1.1) show NC gr  1769 937 m 453 X s
 gsave  2268 1047 0 0 C 1790.3 903.383 t 0 r /Helvetica findfont 34.9829 sf 0 0 m (Entries ) show NC gr 
 gsave  2268 1047 0 0 C 2150.42 903.383 t 0 r /Helvetica findfont 34.9829 sf 0 0 m ( 10) show NC gr 
 gsave  2268 1047 0 0 C 1790.3 862.226 t 0 r /Helvetica findfont 34.9829 sf 0 0 m (Mean  ) show NC gr 
 gsave  2268 1047 0 0 C 2121.61 862.226 t 0 r /Helvetica findfont 34.9829 sf 0 0 m (      0) show NC gr 
 gsave  2268 1047 0 0 C 1790.3 819.012 t 0 r /Helvetica findfont 34.9829 sf 0 0 m (RMS   ) show NC gr 
 gsave  2268 1047 0 0 C 2121.61 819.012 t 0 r /Helvetica findfont 34.9829 sf 0 0 m (      0) show NC gr  1 1 1 c black
 gsave  2268 1047 0 0 C 1010.39 998.042 t 0 r /Helvetica findfont 49.3877 sf 0 0 m (Flujo Alpha) show NC gr 
 gr  gr showpage
end
%%EOF
